Case Study 1: EDA to Create a new Beer for U.S. Craft Enthusiasts
…
Which state has the maximum alcoholic (ABV) beer? Which state has the most bitter (IBU) beer?

#Arrange to see in desc order by ABV
beerAndBreweries2 %>% group_by(State) %>% summarize(maxABV = max(ABV), count = n()) %>% arrange(desc(maxABV)) %>% print(n = 1)

## # A tibble: 50 x 3
##   State maxABV count
##   <chr>  <dbl> <int>
## 1 KY     0.125    14
## # ... with 49 more rows

#Arrange to see in order by IBU
beerAndBreweries2 %>% group_by(State) %>% summarize(maxIBU = max(IBU), count = n()) %>% arrange(desc(maxIBU)) %>% print(n = 1)

## # A tibble: 50 x 3
##   State maxIBU count
##   <chr>  <int> <int>
## 1 OR       138    87
## # ... with 49 more rows
…
