DDSAnalytics’ Turnover Analysis
…
# Looks like a lot of character classes that could be factors
# Transforming chr variables to factors for use
trainingSet[sapply(trainingSet, is.character)] <- lapply(trainingSet[sapply(trainingSet, is.character)], as.factor)
testAttritionSet[sapply(testAttritionSet, is.character)] <- lapply(testAttritionSet[sapply(testAttritionSet, is.character)], as.factor)
testSalarySet[sapply(testSalarySet, is.character)] <- lapply(testSalarySet[sapply(testSalarySet, is.character)], as.factor)

# Do we have any missing values?
inspect_na(trainingSet) # Nope

## # A tibble: 36 x 3
##    col_name           cnt  pcnt
##    <chr>            <int> <dbl>
##  1 ID                   0     0
##  2 Age                  0     0
##  3 Attrition            0     0
##  4 BusinessTravel       0     0
##  5 DailyRate            0     0
##  6 Department           0     0
##  7 DistanceFromHome     0     0
##  8 Education            0     0
##  9 EducationField       0     0
## 10 EmployeeCount        0     0
## # ... with 26 more rows

inspect_na(testAttritionSet) # Same, no NAs

## # A tibble: 35 x 3
##    col_name           cnt  pcnt
##    <chr>            <int> <dbl>
##  1 ID                   0     0
##  2 Age                  0     0
##  3 BusinessTravel       0     0
##  4 DailyRate            0     0
##  5 Department           0     0
##  6 DistanceFromHome     0     0
##  7 Education            0     0
##  8 EducationField       0     0
##  9 EmployeeCount        0     0
## 10 EmployeeNumber       0     0
## # ... with 25 more rows

inspect_na(testSalarySet) # Phew, none anywhere

## # A tibble: 35 x 3
##    col_name           cnt  pcnt
##    <chr>            <int> <dbl>
##  1 ID                   0     0
##  2 Age                  0     0
##  3 Attrition            0     0
##  4 BusinessTravel       0     0
##  5 DailyRate            0     0
##  6 Department           0     0
##  7 DistanceFromHome     0     0
##  8 Education            0     0
##  9 EducationField       0     0
## 10 EmployeeCount        0     0
## # ... with 25 more rows
…
